{
    "content": [
        {
            "id": "17181920",
		    "name": "Sample 5",
		    "createDate": "2014-07-01T00:00:00.000Z",
		    "active": false
        },
        {
        	"id": "21222324",
		    "name": "Sample 6",
		    "createDate": "2014-07-01T00:00:00.000Z",
		    "active": false
        }
    ],
    "firstPage": false,
    "lastPage": true,
    "number": 3,
    "numberOfElements": 2,
    "size": 2,
    "totalElements": 6,
    "totalPages": 3
}