{
    "content": [
        {
            "id": "1234",
		    "name": "Sample 1",
		    "createDate": "2014-07-01T00:00:00.000Z",
		    "active": true
        },
        {
        	"id": "5678",
		    "name": "Sample 2",
		    "createDate": "2014-07-01T00:00:00.000Z",
		    "active": false
        }
    ],
    "firstPage": true,
    "lastPage": false,
    "number": 1,
    "numberOfElements": 2,
    "size": 2,
    "totalElements": 6,
    "totalPages": 3
}